6 30
2 -d 13 3 -d 51 4 -d 78 5 -d 68 6 -d 51 
1 -d 13 3 -d 60 4 -d 70 5 -d 68 6 -d 61 
1 -d 51 2 -d 60 4 -d 56 5 -d 35 6 -d 2 
1 -d 78 2 -d 70 3 -d 56 5 -d 21 6 -d 57 
1 -d 68 2 -d 68 3 -d 35 4 -d 21 6 -d 36 
1 -d 51 2 -d 61 3 -d 2 4 -d 57 5 -d 36 
